\select@language {brazil}
\contentsline {section}{Negra Sombra}{3}
\contentsline {section}{Romaria}{3}
\contentsline {section}{Roda vida}{4}
\contentsline {section}{Desde que o samba \IeC {\'e} samba}{6}
\contentsline {section}{Andan\IeC {\c c}a}{7}
\contentsline {section}{Anuncia\IeC {\c c}\IeC {\~a}o}{8}
\contentsline {section}{Iracema}{9}
\contentsline {section}{H\IeC {\'a} tempos}{10}
\contentsline {section}{Hoje a noite n\IeC {\~a}o tem luar}{11}
\contentsline {section}{E agora o que eu fa\IeC {\c c}o\\da vida sem voc\IeC {\^e}}{12}
\contentsline {section}{Lela}{13}
\contentsline {section}{Guantanamera}{14}
\contentsline {section}{As rosas n\IeC {\~a}o falam}{15}
\contentsline {section}{Evid\IeC {\^e}ncias}{15}
\contentsline {section}{Calix Bento}{16}
\contentsline {section}{Tocando em frente}{17}
\contentsline {section}{Dust in the wind}{19}
\contentsline {section}{Cora\IeC {\c c}\IeC {\~a}o Leviano}{19}
\contentsline {section}{Garota de Ipanema}{20}
\contentsline {section}{Corcovado}{20}
\contentsline {section}{N\IeC {\~a}o deixa o samba morrer}{21}
\contentsline {section}{The fields of athenry}{23}
\contentsline {section}{Dan\IeC {\c c}a um xote}{23}
\contentsline {section}{Chuva/Oh, Chuva}{24}
\contentsline {section}{Mangamarabales}{24}
\contentsline {section}{Sozinho}{25}
\contentsline {section}{A Primeira Vista}{26}
\contentsline {section}{Rindo a toa}{27}
\contentsline {section}{Xote Dos Milagres}{28}
\contentsline {section}{O que \IeC {\'e}? O que \IeC {\'e}?}{29}
\contentsline {section}{Agoniza mas n\IeC {\~a}o morre}{31}
\contentsline {section}{N\IeC {\~a}o, n\IeC {\~a}o chores mais}{32}
\contentsline {section}{Palpite}{33}
\contentsline {section}{L\IeC {\'a}grima de chuva}{34}
\contentsline {section}{Na rua, na chuva, na fazenda!}{35}
\contentsline {section}{Como eu quero}{37}
\contentsline {section}{Salelaka Mokonzi}{38}
\contentsline {section}{Eu s\IeC {\'o} quero um xodo}{39}
\contentsline {section}{Como se dan\IeC {\c c}a o bai\IeC {\~a}o}{39}
\contentsline {section}{Asa Branca}{40}
\contentsline {section}{Xote das Meninas}{41}
