\relax 
\catcode `"\active 
\select@language{brazil}
\@writefile{toc}{\select@language{brazil}}
\@writefile{lof}{\select@language{brazil}}
\@writefile{lot}{\select@language{brazil}}
\@writefile{toc}{\contentsline {section}{Negra Sombra}{3}}
\@writefile{toc}{\contentsline {section}{Romaria}{3}}
\@writefile{toc}{\contentsline {section}{Roda vida}{4}}
\@writefile{toc}{\contentsline {section}{Desde que o samba \IeC {\'e} samba}{6}}
\@writefile{toc}{\contentsline {section}{Andan\IeC {\c c}a}{7}}
\@writefile{toc}{\contentsline {section}{Anuncia\IeC {\c c}\IeC {\~a}o}{8}}
\@writefile{toc}{\contentsline {section}{Iracema}{9}}
\@writefile{toc}{\contentsline {section}{H\IeC {\'a} tempos}{10}}
\@writefile{toc}{\contentsline {section}{Hoje a noite n\IeC {\~a}o tem luar}{11}}
\@writefile{toc}{\contentsline {section}{E agora o que eu fa\IeC {\c c}o\\da vida sem voc\IeC {\^e}}{12}}
\@writefile{toc}{\contentsline {section}{Lela}{13}}
\@writefile{toc}{\contentsline {section}{Guantanamera}{14}}
\@writefile{toc}{\contentsline {section}{As rosas n\IeC {\~a}o falam}{15}}
\@writefile{toc}{\contentsline {section}{Evid\IeC {\^e}ncias}{15}}
\@writefile{toc}{\contentsline {section}{Calix Bento}{16}}
\@writefile{toc}{\contentsline {section}{Tocando em frente}{17}}
\@writefile{toc}{\contentsline {section}{Dust in the wind}{19}}
\@writefile{toc}{\contentsline {section}{Cora\IeC {\c c}\IeC {\~a}o Leviano}{19}}
\@writefile{toc}{\contentsline {section}{Garota de Ipanema}{20}}
\@writefile{toc}{\contentsline {section}{Corcovado}{20}}
\@writefile{toc}{\contentsline {section}{N\IeC {\~a}o deixa o samba morrer}{21}}
\@writefile{toc}{\contentsline {section}{The fields of athenry}{23}}
\@writefile{toc}{\contentsline {section}{Dan\IeC {\c c}a um xote}{23}}
\@writefile{toc}{\contentsline {section}{Chuva/Oh, Chuva}{24}}
\@writefile{toc}{\contentsline {section}{Mangamarabales}{24}}
\@writefile{toc}{\contentsline {section}{Sozinho}{25}}
\@writefile{toc}{\contentsline {section}{A Primeira Vista}{26}}
\@writefile{toc}{\contentsline {section}{Rindo a toa}{27}}
\@writefile{toc}{\contentsline {section}{Xote Dos Milagres}{28}}
\@writefile{toc}{\contentsline {section}{O que \IeC {\'e}? O que \IeC {\'e}?}{29}}
\@writefile{toc}{\contentsline {section}{Agoniza mas n\IeC {\~a}o morre}{31}}
\@writefile{toc}{\contentsline {section}{N\IeC {\~a}o, n\IeC {\~a}o chores mais}{32}}
\@writefile{toc}{\contentsline {section}{Palpite}{33}}
\@writefile{toc}{\contentsline {section}{L\IeC {\'a}grima de chuva}{34}}
\@writefile{toc}{\contentsline {section}{Na rua, na chuva, na fazenda!}{35}}
\@writefile{toc}{\contentsline {section}{Como eu quero}{37}}
\@writefile{toc}{\contentsline {section}{Salelaka Mokonzi}{38}}
\@writefile{toc}{\contentsline {section}{Eu s\IeC {\'o} quero um xodo}{39}}
\@writefile{toc}{\contentsline {section}{Como se dan\IeC {\c c}a o bai\IeC {\~a}o}{39}}
\@writefile{toc}{\contentsline {section}{Asa Branca}{40}}
\@writefile{toc}{\contentsline {section}{Xote das Meninas}{41}}
