\relax 
\catcode `"\active 
\select@language{brazil}
\@writefile{toc}{\select@language{brazil}}
\@writefile{lof}{\select@language{brazil}}
\@writefile{lot}{\select@language{brazil}}
\@writefile{toc}{\contentsline {section}{\numberline {1}Negra Sombra}{2}}
\@writefile{toc}{\contentsline {section}{\numberline {2}Romaria}{2}}
\@writefile{toc}{\contentsline {section}{\numberline {3}Roda vida}{4}}
\@writefile{toc}{\contentsline {section}{\numberline {4}Desde que o samba \IeC {\'e} samba}{6}}
\@writefile{toc}{\contentsline {section}{\numberline {5}Andan\IeC {\c c}a}{6}}
\@writefile{toc}{\contentsline {section}{\numberline {6}Anuncia\IeC {\c c}\IeC {\~a}o}{8}}
\@writefile{toc}{\contentsline {section}{\numberline {7}Iracema}{10}}
\@writefile{toc}{\contentsline {section}{\numberline {8}H\IeC {\'a} tempos}{10}}
\@writefile{toc}{\contentsline {section}{\numberline {9}Hoje a noite n\IeC {\~a}o tem luar}{12}}
\@writefile{toc}{\contentsline {section}{\numberline {10}E agora o que eu fa\IeC {\c c}o da vida sem voc\IeC {\^e}}{12}}
\@writefile{toc}{\contentsline {section}{\numberline {11}Lela (Lela, Lela, Leli\IeC {\~n}a por quein eu morro quero mirarre...)}{14}}
\@writefile{toc}{\contentsline {section}{\numberline {12}Guantanameira}{16}}
\@writefile{toc}{\contentsline {section}{\numberline {13}As rosas n\IeC {\~a}o falam}{18}}
\@writefile{toc}{\contentsline {section}{\numberline {14}Evid\IeC {\^e}ncias}{18}}
\@writefile{toc}{\contentsline {section}{\numberline {15}Calix Bento}{20}}
\@writefile{toc}{\contentsline {section}{\numberline {16}Tocando em frente}{20}}
\@writefile{toc}{\contentsline {section}{\numberline {17}Dust in the wind}{22}}
\@writefile{toc}{\contentsline {section}{\numberline {18}Cora\IeC {\c c}\IeC {\~a}o Leviano}{24}}
\@writefile{toc}{\contentsline {section}{\numberline {19}Garota de Ipanema}{24}}
\@writefile{toc}{\contentsline {section}{\numberline {20}Corcovado}{24}}
\@writefile{toc}{\contentsline {section}{\numberline {21}N\IeC {\~a}o deixa o samba morrer}{26}}
\@writefile{toc}{\contentsline {section}{\numberline {22}The fields of athenry}{28}}
\@writefile{toc}{\contentsline {section}{\numberline {23}Dan\IeC {\c c}a um xote}{28}}
\@writefile{toc}{\contentsline {section}{\numberline {24}Chuva/Oh, Chuva}{28}}
\@writefile{toc}{\contentsline {section}{\numberline {25}Mangamarabales}{30}}
\@writefile{toc}{\contentsline {section}{\numberline {26}Sozinho}{30}}
\@writefile{toc}{\contentsline {section}{\numberline {27}Quando n\IeC {\~a}o tinha nada eu quis (A Primeira Vista?)}{32}}
\@writefile{toc}{\contentsline {section}{\numberline {28}Rindo a toa(?)/Xote dos milagres}{34}}
\@writefile{toc}{\contentsline {section}{\numberline {29}O que \IeC {\'e}? O que \IeC {\'e}?}{36}}
\@writefile{toc}{\contentsline {section}{\numberline {30}Agoniza mas n\IeC {\~a}o morre}{40}}
\@writefile{toc}{\contentsline {section}{\numberline {31}N\IeC {\~a}o, n\IeC {\~a}o chores mais}{40}}
\@writefile{toc}{\contentsline {section}{\numberline {32}Palpite}{42}}
\@writefile{toc}{\contentsline {section}{\numberline {33}L\IeC {\'a}grima de chuva}{42}}
\@writefile{toc}{\contentsline {section}{\numberline {34}Na rua, na chuva, na fazenda!}{44}}
\@writefile{toc}{\contentsline {section}{\numberline {35}Como eu quero}{46}}
\@writefile{toc}{\contentsline {section}{\numberline {36}Salelaka Mokonzi}{48}}
\@writefile{toc}{\contentsline {section}{\numberline {37}Eu s\IeC {\'o} quero um xodo}{48}}
\@writefile{toc}{\contentsline {section}{\numberline {38}Como se dan\IeC {\c c}a o bai\IeC {\~a}o}{50}}
\@writefile{toc}{\contentsline {section}{\numberline {39}Asa Branca}{50}}
\@writefile{toc}{\contentsline {section}{\numberline {40}Xote das Meninas}{52}}
